"","X","X.1","variable","value","percent"
"1","many_most","considerable","one",32,"1.1%"
"9","many","moderate","one",1154,"7.6%"
"14","some","moderate","one",9622,"63.4%"
"18","single","low","one",17063,"100%"
"22","many_most","high","two",150,"26.4%"
"26","many","considerable","two",992,"34.8%"
"31","some","considerable","two",1829,"64.1%"
"39","single","moderate","two",4395,"29%"
"42","many_most","high","three",240,"42.3%"
"47","many","high","three",178,"31.3%"
