"","X","X.1","X.2","one","two","three","four"
"17","many_most","considerable","large","NA","NA","NA","NA"
"18","many_most","considerable","medium","NA","NA","NA","NA"
"19","many_most","considerable","small","NA","NA","NA","NA"
"20","many_most","considerable","very_large","NA","NA","NA","NA"
"21","many_most","high","large","NA","NA","94","142"
"22","many_most","high","medium","NA","NA","32","NA"
"23","many_most","high","small","NA","NA","NA","NA"
"24","many_most","high","very_large","NA","NA","NA","NA"
"25","many_most","low","large","NA","NA","NA","NA"
"26","many_most","low","medium","NA","NA","NA","NA"
"27","many_most","low","small","NA","NA","NA","NA"
"28","many_most","low","very_large","NA","NA","NA","NA"
"29","many_most","moderate","large","NA","NA","NA","NA"
"30","many_most","moderate","medium","NA","NA","NA","NA"
"31","many_most","moderate","small","NA","NA","NA","NA"
"32","many_most","moderate","very_large","NA","NA","NA","NA"
"1","many","considerable","large","NA","NA","404","NA"
"2","many","considerable","medium","NA","NA","250","NA"
"3","many","considerable","small","NA","NA","NA","NA"
"4","many","considerable","very_large","NA","NA","NA","NA"
"5","many","high","large","NA","NA","NA","57"
"6","many","high","medium","NA","NA","NA","NA"
"7","many","high","small","NA","NA","NA","NA"
"8","many","high","very_large","NA","NA","20","NA"
"9","many","low","large","NA","NA","NA","NA"
"10","many","low","medium","NA","NA","NA","NA"
"11","many","low","small","NA","NA","NA","NA"
"12","many","low","very_large","NA","NA","NA","NA"
"13","many","moderate","large","NA","NA","NA","NA"
"14","many","moderate","medium","NA","198","NA","NA"
"15","many","moderate","small","NA","4","120","NA"
"16","many","moderate","very_large","NA","NA","NA","NA"
"49","some","considerable","large","NA","NA","441","62"
"50","some","considerable","medium","NA","NA","NA","305"
"51","some","considerable","small","NA","NA","NA","NA"
"52","some","considerable","very_large","NA","NA","NA","NA"
"53","some","high","large","NA","NA","NA","NA"
"54","some","high","medium","NA","NA","NA","NA"
"55","some","high","small","NA","NA","NA","NA"
"56","some","high","very_large","NA","NA","NA","NA"
"57","some","low","large","NA","NA","NA","NA"
"58","some","low","medium","NA","NA","NA","NA"
"59","some","low","small","101","415","164","NA"
"60","some","low","very_large","NA","NA","NA","NA"
"61","some","moderate","large","NA","490","NA","NA"
"62","some","moderate","medium","214","1514","3941","NA"
"63","some","moderate","small","NA","NA","NA","334"
"64","some","moderate","very_large","NA","NA","NA","NA"
"33","single","considerable","large","NA","NA","NA","NA"
"34","single","considerable","medium","NA","NA","NA","NA"
"35","single","considerable","small","NA","NA","NA","NA"
"36","single","considerable","very_large","NA","NA","NA","NA"
"37","single","high","large","NA","NA","NA","NA"
"38","single","high","medium","NA","NA","NA","NA"
"39","single","high","small","NA","NA","NA","NA"
"40","single","high","very_large","NA","NA","NA","NA"
"41","single","low","large","76","NA","NA","NA"
"42","single","low","medium","2437","3558","2361","NA"
"43","single","low","small","622","346","674","NA"
"44","single","low","very_large","NA","NA","NA","NA"
"45","single","moderate","large","NA","56","20","NA"
"46","single","moderate","medium","NA","NA","NA","NA"
"47","single","moderate","small","NA","NA","NA","NA"
"48","single","moderate","very_large","NA","NA","NA","NA"
