"","X","X.1","X.2","variable","value","percent"
"46","some","moderate","medium","one",555,"3.69%"
"58","single","low","medium","one",3367,"15.3%"
"59","single","low","small","one",2770,"12.59%"
"81","many","considerable","large","two",142,"3.17%"
"94","many","moderate","medium","two",1133,"7.53%"
"107","some","low","small","two",586,"2.66%"
"109","some","moderate","large","two",416,"2.77%"
"110","some","moderate","medium","two",6699,"44.54%"
"122","single","low","medium","two",7190,"32.67%"
"123","single","low","small","two",1821,"8.27%"
"133","many_most","high","large","three",36,"5.28%"
"145","many","considerable","large","three",1214,"27.09%"
"146","many","considerable","medium","three",1760,"39.27%"
"159","many","moderate","small","three",234,"1.56%"
"161","some","considerable","large","three",1238,"27.62%"
"171","some","low","small","three",1048,"4.76%"
"174","some","moderate","medium","three",6003,"39.91%"
"186","single","low","medium","three",2554,"11.6%"
"187","single","low","small","three",2672,"12.14%"
"197","many_most","high","large","four",176,"25.81%"
"213","many","high","large","four",470,"68.91%"
"225","some","considerable","large","four",128,"2.86%"
