"","X","X.1","X.2","variable","value","percent"
"43","some","low","small","one",42,"0.29%"
"46","some","moderate","medium","one",249,"4.68%"
"57","single","low","large","one",14,"0.1%"
"58","single","low","medium","one",2404,"16.74%"
"59","single","low","small","one",1929,"13.43%"
"81","many","considerable","large","two",58,"6.76%"
"94","many","moderate","medium","two",293,"5.5%"
"100","some","considerable","very_large","two",18,"2.1%"
"107","some","low","small","two",350,"2.44%"
"109","some","moderate","large","two",92,"1.73%"
"110","some","moderate","medium","two",3008,"56.48%"
"122","single","low","medium","two",4578,"31.88%"
"123","single","low","small","two",686,"4.78%"
"133","many_most","high","large","three",18,"7.44%"
"145","many","considerable","large","three",224,"26.11%"
"146","many","considerable","medium","three",226,"26.34%"
"159","many","moderate","small","three",38,"0.71%"
"161","some","considerable","large","three",280,"32.63%"
"171","some","low","small","three",848,"5.9%"
"174","some","moderate","medium","three",1646,"30.9%"
"186","single","low","medium","three",1794,"12.49%"
"187","single","low","small","three",1716,"11.95%"
"197","many_most","high","large","four",88,"36.36%"
"213","many","high","large","four",136,"56.2%"
"225","some","considerable","large","four",52,"6.06%"
